{
  "annotations": {
    "list": [
      {
        "builtIn": 1,
        "datasource": "-- Grafana --",
        "enable": true,
        "hide": true,
        "iconColor": "rgba(0, 211, 255, 1)",
        "name": "Annotations & Alerts",
        "type": "dashboard"
      }
    ]
  },
  "editable": true,
  "gnetId": null,
  "graphTooltip": 0,
  "iteration": 1581952117210,
  "links": [],
  "panels": [
    {
      "datasource": null,
      "gridPos": {
        "h": 10,
        "w": 11,
        "x": 0,
        "y": 0
      },
      "id": 6,
      "options": {
        "displayMode": "basic",
        "fieldOptions": {
          "calcs": [
            "mean"
          ],
          "defaults": {
            "color": {
              "mode": "thresholds"
            },
            "decimals": 2,
            "mappings": [],
            "max": 10,
            "min": 0,
            "thresholds": {
              "mode": "absolute",
              "steps": [
                {
                  "color": "red",
                  "value": null
                },
                {
                  "color": "green",
                  "value": 1
                }
              ]
            },
            "title": "$__cell_0  $__cell_1",
            "unit": "none"
          },
          "limit": 12,
          "overrides": [],
          "values": true
        },
        "orientation": "horizontal",
        "showUnfilled": true
      },
      "pluginVersion": "6.6.1",
      "targets": [
        {
          "format": "table",
          "group": [],
          "metricColumn": "none",
          "rawQuery": true,
          "rawSql": "SELECT site\n    , type\n    , AVG(value) AS value\nFROM nexmon_benchmark\nWHERE $__timeFilter(date) \n    AND metric LIKE 'server_response'\n    AND type IN (${method})\n    AND site IN (${location})\n    AND creo_version LIKE 'Creo 2.0'\nGROUP BY site, type\nORDER BY site, value DESC",
          "refId": "A",
          "select": [
            [
              {
                "params": [
                  "float_value"
                ],
                "type": "column"
              }
            ]
          ],
          "table": "mds_metrics",
          "timeColumn": "\"timestamp\"",
          "timeColumnType": "timestamp",
          "where": [
            {
              "name": "$__timeFilter",
              "params": [],
              "type": "macro"
            }
          ]
        }
      ],
      "timeFrom": null,
      "timeShift": null,
      "title": "Server Response Creo 2.0 [req/s]",
      "type": "bargauge"
    },
    {
      "datasource": null,
      "gridPos": {
        "h": 10,
        "w": 12,
        "x": 11,
        "y": 0
      },
      "id": 7,
      "options": {
        "displayMode": "basic",
        "fieldOptions": {
          "calcs": [
            "mean"
          ],
          "defaults": {
            "color": {
              "mode": "thresholds"
            },
            "decimals": 2,
            "mappings": [],
            "max": 10,
            "min": 0,
            "thresholds": {
              "mode": "absolute",
              "steps": [
                {
                  "color": "red",
                  "value": null
                },
                {
                  "color": "green",
                  "value": 1
                }
              ]
            },
            "title": "$__cell_0  $__cell_1",
            "unit": "none"
          },
          "limit": 12,
          "overrides": [],
          "values": true
        },
        "orientation": "horizontal",
        "showUnfilled": true
      },
      "pluginVersion": "6.6.1",
      "targets": [
        {
          "format": "table",
          "group": [],
          "metricColumn": "none",
          "rawQuery": true,
          "rawSql": "SELECT site\n    , type\n    , AVG(value) AS value\nFROM nexmon_benchmark\nWHERE $__timeFilter(date) \n    AND metric LIKE 'internet_connection'\n    AND type IN (${method})\n    AND site IN (${location})\n    AND creo_version LIKE 'Creo 2.0'\nGROUP BY site, type\nORDER BY site, value DESC",
          "refId": "A",
          "select": [
            [
              {
                "params": [
                  "float_value"
                ],
                "type": "column"
              }
            ]
          ],
          "table": "mds_metrics",
          "timeColumn": "\"timestamp\"",
          "timeColumnType": "timestamp",
          "where": [
            {
              "name": "$__timeFilter",
              "params": [],
              "type": "macro"
            }
          ]
        }
      ],
      "timeFrom": null,
      "timeShift": null,
      "title": "Internet Connection Creo 2.0 [req/s]",
      "type": "bargauge"
    },
    {
      "activeThemeId": 0,
      "datasource": null,
      "disableThemePicker": true,
      "gridPos": {
        "h": 2,
        "w": 1,
        "x": 23,
        "y": 0
      },
      "id": 11,
      "options": {},
      "targets": [
        {
          "format": "time_series",
          "group": [],
          "metricColumn": "none",
          "rawQuery": false,
          "rawSql": "SELECT\n  \"timestamp\" AS \"time\",\n  float_value\nFROM mds_metrics\nWHERE\n  $__timeFilter(\"timestamp\")\nORDER BY 1",
          "refId": "A",
          "select": [
            [
              {
                "params": [
                  "float_value"
                ],
                "type": "column"
              }
            ]
          ],
          "table": "mds_metrics",
          "timeColumn": "\"timestamp\"",
          "timeColumnType": "timestamp",
          "where": [
            {
              "name": "$__timeFilter",
              "params": [],
              "type": "macro"
            }
          ]
        }
      ],
      "themes": [
        {
          "name": "nexiles Theme",
          "styles": [
            {
              "props": {
                "theme": "light"
              },
              "type": "basetheme"
            },
            {
              "props": {
                "text": "@font-face {\n  font-family: 'texgyreadventor';\n  src: url('public/fonts/texgyreadventor-regular.otf') format(\"opentype\");\n}"
              },
              "type": "style"
            },
            {
              "props": {
                "url": "public/css/nexilesTheme.css"
              },
              "type": "url"
            }
          ]
        }
      ],
      "timeFrom": null,
      "timeShift": null,
      "title": "",
      "transparent": true,
      "type": "yesoreyeram-boomtheme-panel"
    },
    {
      "datasource": null,
      "gridPos": {
        "h": 10,
        "w": 11,
        "x": 0,
        "y": 10
      },
      "id": 8,
      "options": {
        "displayMode": "basic",
        "fieldOptions": {
          "calcs": [
            "mean"
          ],
          "defaults": {
            "color": {
              "mode": "thresholds"
            },
            "decimals": 2,
            "mappings": [],
            "max": 10,
            "min": 0,
            "thresholds": {
              "mode": "absolute",
              "steps": [
                {
                  "color": "red",
                  "value": null
                },
                {
                  "color": "green",
                  "value": 1
                }
              ]
            },
            "title": "$__cell_0  $__cell_1",
            "unit": "none"
          },
          "limit": 12,
          "overrides": [],
          "values": true
        },
        "orientation": "horizontal",
        "showUnfilled": true
      },
      "pluginVersion": "6.6.1",
      "targets": [
        {
          "format": "table",
          "group": [],
          "metricColumn": "none",
          "rawQuery": true,
          "rawSql": "SELECT site\n    , type\n    , AVG(value) AS value\nFROM nexmon_benchmark\nWHERE $__timeFilter(date) \n    AND metric LIKE 'server_response'\n    AND type IN (${method})\n    AND site IN (${location})\n    AND creo_version LIKE 'Creo 4.0'\nGROUP BY site, type\nORDER BY site, value DESC",
          "refId": "A",
          "select": [
            [
              {
                "params": [
                  "float_value"
                ],
                "type": "column"
              }
            ]
          ],
          "table": "mds_metrics",
          "timeColumn": "\"timestamp\"",
          "timeColumnType": "timestamp",
          "where": [
            {
              "name": "$__timeFilter",
              "params": [],
              "type": "macro"
            }
          ]
        }
      ],
      "timeFrom": null,
      "timeShift": null,
      "title": "Server Response Creo 4.0 [req/s]",
      "type": "bargauge"
    },
    {
      "datasource": null,
      "gridPos": {
        "h": 10,
        "w": 12,
        "x": 11,
        "y": 10
      },
      "id": 9,
      "options": {
        "displayMode": "basic",
        "fieldOptions": {
          "calcs": [
            "mean"
          ],
          "defaults": {
            "color": {
              "mode": "thresholds"
            },
            "decimals": 2,
            "mappings": [],
            "max": 10,
            "min": 0,
            "thresholds": {
              "mode": "absolute",
              "steps": [
                {
                  "color": "red",
                  "value": null
                },
                {
                  "color": "green",
                  "value": 1
                }
              ]
            },
            "title": "$__cell_0  $__cell_1",
            "unit": "none"
          },
          "limit": 12,
          "overrides": [],
          "values": true
        },
        "orientation": "horizontal",
        "showUnfilled": true
      },
      "pluginVersion": "6.6.1",
      "targets": [
        {
          "format": "table",
          "group": [],
          "metricColumn": "none",
          "rawQuery": true,
          "rawSql": "SELECT site\n    , type\n    , AVG(value) AS value\nFROM nexmon_benchmark\nWHERE $__timeFilter(date) \n    AND metric LIKE 'internet_connection'\n    AND type IN (${method})\n    AND site IN (${location})\n    AND creo_version LIKE 'Creo 4.0'\nGROUP BY site, type\nORDER BY site, value DESC",
          "refId": "A",
          "select": [
            [
              {
                "params": [
                  "float_value"
                ],
                "type": "column"
              }
            ]
          ],
          "table": "mds_metrics",
          "timeColumn": "\"timestamp\"",
          "timeColumnType": "timestamp",
          "where": [
            {
              "name": "$__timeFilter",
              "params": [],
              "type": "macro"
            }
          ]
        }
      ],
      "timeFrom": null,
      "timeShift": null,
      "title": "Internet Connection Creo 4.0 [req/s]",
      "type": "bargauge"
    }
  ],
  "refresh": false,
  "schemaVersion": 22,
  "style": "dark",
  "tags": [],
  "templating": {
    "list": [
      {
        "allValue": null,
        "current": {
          "text": "PD + PN + PX + PY + PZ + UNKNOWN",
          "value": [
            "PD",
            "PN",
            "PX",
            "PY",
            "PZ",
            "UNKNOWN"
          ]
        },
        "datasource": "Postgres",
        "definition": "SELECT subpath(classification,2,1) FROM mds_metrics WHERE classification ~ 'creoagent.1.*' GROUP BY 1;",
        "hide": 0,
        "includeAll": false,
        "label": "Location",
        "multi": true,
        "name": "location",
        "options": [],
        "query": "SELECT subpath(classification,2,1) FROM mds_metrics WHERE classification ~ 'creoagent.1.*' GROUP BY 1;",
        "refresh": 2,
        "regex": "",
        "skipUrlSync": false,
        "sort": 0,
        "tagValuesQuery": "",
        "tags": [],
        "tagsQuery": "",
        "type": "query",
        "useTags": false
      },
      {
        "allValue": null,
        "current": {
          "text": "Median",
          "value": [
            "Median"
          ]
        },
        "hide": 0,
        "includeAll": false,
        "label": "Method",
        "multi": true,
        "name": "method",
        "options": [
          {
            "selected": false,
            "text": "Maximum",
            "value": "Maximum"
          },
          {
            "selected": true,
            "text": "Median",
            "value": "Median"
          },
          {
            "selected": false,
            "text": "Minimum",
            "value": "Minimum"
          }
        ],
        "query": "Maximum, Median, Minimum",
        "skipUrlSync": false,
        "type": "custom"
      }
    ]
  },
  "time": {
    "from": "now-30d",
    "to": "now"
  },
  "timepicker": {
    "refresh_intervals": [
      "5s",
      "10s",
      "30s",
      "1m",
      "5m",
      "15m",
      "30m",
      "1h",
      "2h",
      "1d"
    ]
  },
  "timezone": "",
  "title": "Benchmark",
  "uid": "engqaR1Wz",
  "version": 6
}

